[05:11:40] <strong>Record</strong> #1
[05:11:40] post #371 Successfully Imported
[05:11:40] <strong>Record</strong> #2
[05:11:40] post #373 Successfully Imported
[05:11:40] <strong>Record</strong> #3
[05:11:40] post #375 Successfully Imported
[05:11:40] <strong>Record</strong> #4
[05:11:40] post #377 Successfully Imported
[05:11:40] <strong>Record</strong> #5
[05:11:40] post #379 Successfully Imported
[05:11:40] <strong>Record</strong> #6
[05:11:41] post #381 Successfully Imported
[05:11:41] <strong>Record</strong> #7
[05:11:41] post #383 Successfully Imported
[05:11:41] <strong>Record</strong> #8
[05:11:41] post #385 Successfully Imported
[05:11:41] <strong>Record</strong> #9
[05:11:41] post #387 Successfully Imported
[05:11:41] <strong>Record</strong> #10
[05:11:41] post #389 Successfully Imported
[05:11:41] <strong>Record</strong> #11
[05:11:41] post #391 Successfully Imported
[05:11:41] <strong>Record</strong> #12
[05:11:42] post #393 Successfully Imported
[05:11:42] <strong>Record</strong> #13
[05:11:42] post #395 Successfully Imported
[05:11:42] <strong>Record</strong> #14
[05:11:42] post #397 Successfully Imported
[05:11:42] <strong>Record</strong> #15
[05:11:42] post #399 Successfully Imported
[05:11:42] <strong>Record</strong> #16
[05:11:42] post #402 Successfully Imported
[05:11:42] <strong>Record</strong> #17
[05:11:42] post #404 Successfully Imported
[05:11:42] <strong>Record</strong> #18
[05:11:43] post #406 Successfully Imported
[05:11:43] <strong>Record</strong> #19
[05:11:43] post #407 Successfully Imported
[05:11:43] <strong>Record</strong> #20
[05:11:43] post #409 Successfully Imported
[05:11:44] <strong>Record</strong> #21
[05:11:44] post #411 Successfully Imported
[05:11:44] <strong>Record</strong> #22
[05:11:44] post #413 Successfully Imported
[05:11:44] <strong>Record</strong> #23
[05:11:45] post #415 Successfully Imported
[05:11:45] <strong>Record</strong> #24
[05:11:45] post #417 Successfully Imported
[05:11:45] <strong>Record</strong> #25
[05:11:45] post #419 Successfully Imported
[05:11:45] <strong>Record</strong> #26
[05:11:45] post #421 Successfully Imported
[05:11:45] <strong>Record</strong> #27
[05:11:45] post #423 Successfully Imported
[05:11:45] <strong>Record</strong> #28
[05:11:45] post #425 Successfully Imported
[05:11:45] <strong>Record</strong> #29
[05:11:46] post #427 Successfully Imported
[05:11:46] <strong>Record</strong> #30
[05:11:46] post #430 Successfully Imported
[05:11:46] <strong>Record</strong> #31
[05:11:46] post #432 Successfully Imported
[05:11:46] <strong>Record</strong> #32
[05:11:46] post #434 Successfully Imported
[05:11:46] <strong>Record</strong> #33
[05:11:46] post #436 Successfully Imported
[05:11:46] <strong>Record</strong> #34
[05:11:47] post #438 Successfully Imported
[05:11:47] <strong>Record</strong> #35
[05:11:47] post #440 Successfully Imported
[05:11:47] <strong>Record</strong> #36
[05:11:47] post #443 Successfully Imported
[05:11:47] <strong>Record</strong> #37
[05:11:47] post #445 Successfully Imported
[05:11:47] <strong>Record</strong> #38
[05:11:47] post #447 Successfully Imported
[05:11:47] <strong>Record</strong> #39
[05:11:48] post #450 Successfully Imported
[05:11:48] <strong>Record</strong> #40
[05:11:48] post #452 Successfully Imported
[05:11:48] <strong>Record</strong> #41
[05:11:48] post #454 Successfully Imported
[05:11:48] <strong>Record</strong> #42
[05:11:48] post #456 Successfully Imported
[05:11:48] <strong>Record</strong> #43
[05:11:49] post #458 Successfully Imported
[05:11:49] <strong>Record</strong> #44
[05:11:49] post #460 Successfully Imported
[05:11:49] <strong>Record</strong> #45
[05:11:49] post #462 Successfully Imported
[05:11:49] <strong>Record</strong> #46
[05:11:49] post #464 Successfully Imported
[05:11:49] <strong>Record</strong> #47
[05:11:49] post #466 Successfully Imported
[05:11:49] <strong>Record</strong> #48
[05:11:49] post #468 Successfully Imported
[05:11:49] <strong>Record</strong> #49
[05:11:50] post #470 Successfully Imported
[05:11:50] <strong>Record</strong> #50
[05:11:50] post #472 Successfully Imported
[05:11:50] <strong>Record</strong> #51
[05:11:50] post #474 Successfully Imported
[05:11:50] <strong>Record</strong> #52
[05:11:50] post #476 Successfully Imported
[05:11:50] <strong>Record</strong> #53
[05:11:50] post #478 Successfully Imported
[05:11:50] <strong>Record</strong> #54
[05:11:50] post #480 Successfully Imported
[05:11:50] <strong>Record</strong> #55
[05:11:51] post #482 Successfully Imported
[05:11:51] <strong>Record</strong> #56
[05:11:51] post #484 Successfully Imported
[05:11:51] <strong>Record</strong> #57
[05:11:51] post #486 Successfully Imported
[05:11:51] <strong>Record</strong> #58
[05:11:51] post #488 Successfully Imported
[05:11:51] <strong>Record</strong> #59
[05:11:51] post #491 Successfully Imported
[05:11:51] <strong>Record</strong> #60
[05:11:52] post #493 Successfully Imported
[05:11:53] <strong>Record</strong> #61
[05:11:53] post #496 Successfully Imported
[05:11:53] <strong>Record</strong> #62
[05:11:53] post #498 Successfully Imported
[05:11:53] <strong>Record</strong> #63
[05:11:53] post #500 Successfully Imported
[05:11:53] <strong>Record</strong> #64
[05:11:53] post #502 Successfully Imported
[05:11:53] <strong>Record</strong> #65
[05:11:54] post #504 Successfully Imported
[05:11:54] <strong>Record</strong> #66
[05:11:54] post #506 Successfully Imported
[05:11:54] <strong>Record</strong> #67
[05:11:54] post #509 Successfully Imported
[05:11:54] <strong>Record</strong> #68
[05:11:54] post #511 Successfully Imported
[05:11:54] <strong>Record</strong> #69
[05:11:54] post #513 Successfully Imported
[05:11:54] <strong>Record</strong> #70
[05:11:54] post #515 Successfully Imported
[05:11:54] <strong>Record</strong> #71
[05:11:55] post #517 Successfully Imported
[05:11:55] <strong>Record</strong> #72
[05:11:55] post #519 Successfully Imported
[05:11:55] <strong>Record</strong> #73
[05:11:55] post #521 Successfully Imported
[05:11:55] <strong>Record</strong> #74
[05:11:55] post #523 Successfully Imported
[05:11:55] <strong>Record</strong> #75
[05:11:55] post #525 Successfully Imported
[05:11:55] <strong>Record</strong> #76
[05:11:55] post #527 Successfully Imported
[05:11:55] <strong>Record</strong> #77
[05:11:56] post #529 Successfully Imported
[05:11:56] <strong>Record</strong> #78
[05:11:56] post #531 Successfully Imported
[05:11:56] <strong>Record</strong> #79
[05:11:56] post #533 Successfully Imported
[05:11:56] <strong>Record</strong> #80
[05:11:56] post #535 Successfully Imported
[05:11:56] <strong>Record</strong> #81
[05:11:57] post #537 Successfully Imported
[05:11:57] <strong>Record</strong> #82
[05:11:57] post #539 Successfully Imported
[05:11:57] <strong>Record</strong> #83
[05:11:57] post #541 Successfully Imported
[05:11:57] <strong>Record</strong> #84
[05:11:57] post #543 Successfully Imported
[05:11:57] <strong>Record</strong> #85
[05:11:57] post #545 Successfully Imported
[05:11:57] <strong>Record</strong> #86
[05:11:57] post #547 Successfully Imported
[05:11:57] <strong>Record</strong> #87
[05:11:58] post #549 Successfully Imported
[05:11:58] <strong>Record</strong> #88
[05:11:58] post #551 Successfully Imported
[05:11:58] <strong>Record</strong> #89
[05:11:58] post #553 Successfully Imported
[05:11:58] <strong>Record</strong> #90
[05:11:58] post #555 Successfully Imported
[05:11:58] <strong>Record</strong> #91
[05:11:58] post #557 Successfully Imported
[05:11:58] <strong>Record</strong> #92
[05:11:58] post #559 Successfully Imported
[05:11:58] <strong>Record</strong> #93
[05:11:59] post #561 Successfully Imported
[05:11:59] <strong>Record</strong> #94
[05:11:59] post #563 Successfully Imported
[05:11:59] <strong>Record</strong> #95
[05:11:59] post #565 Successfully Imported
[05:11:59] <strong>Record</strong> #96
[05:11:59] post #567 Successfully Imported
[05:11:59] <strong>Record</strong> #97
[05:11:59] post #569 Successfully Imported
[05:11:59] <strong>Record</strong> #98
[05:11:59] post #571 Successfully Imported
[05:11:59] <strong>Record</strong> #99
[05:12:00] post #573 Successfully Imported
[05:12:00] <strong>Record</strong> #100
[05:12:00] post #575 Successfully Imported
[05:12:00] <strong>Record</strong> #101
[05:12:01] post #577 Successfully Imported
[05:12:01] <strong>Record</strong> #102
[05:12:01] post #579 Successfully Imported
[05:12:01] <strong>Record</strong> #103
[05:12:01] post #581 Successfully Imported
[05:12:01] <strong>Record</strong> #104
[05:12:01] post #583 Successfully Imported
[05:12:01] <strong>Record</strong> #105
[05:12:01] post #585 Successfully Imported
[05:12:01] <strong>Record</strong> #106
[05:12:01] post #587 Successfully Imported
[05:12:01] <strong>Record</strong> #107
[05:12:02] post #589 Successfully Imported
[05:12:02] <strong>Record</strong> #108
[05:12:02] post #591 Successfully Imported
[05:12:02] <strong>Record</strong> #109
[05:12:02] post #593 Successfully Imported
[05:12:02] <strong>Record</strong> #110
[05:12:02] post #595 Successfully Imported
[05:12:02] <strong>Record</strong> #111
[05:12:02] post #597 Successfully Imported
[05:12:02] <strong>Record</strong> #112
[05:12:02] post #599 Successfully Imported
[05:12:02] <strong>Record</strong> #113
[05:12:02] post #601 Successfully Imported
[05:12:02] <strong>Record</strong> #114
[05:12:03] post #603 Successfully Imported
[05:12:03] <strong>Record</strong> #115
[05:12:03] post #605 Successfully Imported
[05:12:03] <strong>Record</strong> #116
[05:12:03] post #608 Successfully Imported
[05:12:03] <strong>Record</strong> #117
[05:12:03] post #610 Successfully Imported
[05:12:03] <strong>Record</strong> #118
[05:12:03] post #612 Successfully Imported
[05:12:03] <strong>Record</strong> #119
[05:12:04] post #614 Successfully Imported
[05:12:04] <strong>Record</strong> #120
[05:12:04] post #616 Successfully Imported
[05:12:04] <strong>Record</strong> #121
[05:12:04] post #618 Successfully Imported
[05:12:04] <strong>Record</strong> #122
[05:12:04] post #620 Successfully Imported
[05:12:04] <strong>Record</strong> #123
[05:12:05] post #622 Successfully Imported
[05:12:05] <strong>Record</strong> #124
[05:12:05] post #624 Successfully Imported
[05:12:05] <strong>Record</strong> #125
[05:12:05] post #626 Successfully Imported
[05:12:05] <strong>Record</strong> #126
[05:12:05] post #628 Successfully Imported
[05:12:05] <strong>Record</strong> #127
[05:12:05] post #630 Successfully Imported
[05:12:05] <strong>Record</strong> #128
[05:12:05] post #632 Successfully Imported
[05:12:05] <strong>Record</strong> #129
[05:12:06] post #634 Successfully Imported
[05:12:06] <strong>Record</strong> #130
[05:12:06] post #636 Successfully Imported
[05:12:06] <strong>Record</strong> #131
[05:12:06] post #638 Successfully Imported
[05:12:06] <strong>Record</strong> #132
[05:12:06] post #640 Successfully Imported
[05:12:06] <strong>Record</strong> #133
[05:12:06] post #642 Successfully Imported
[05:12:06] <strong>Record</strong> #134
[05:12:06] post #644 Successfully Imported
[05:12:06] <strong>Record</strong> #135
[05:12:07] post #646 Successfully Imported
[05:12:07] <strong>Record</strong> #136
[05:12:07] post #648 Successfully Imported
[05:12:07] <strong>Record</strong> #137
[05:12:07] post #650 Successfully Imported
[05:12:07] <strong>Record</strong> #138
[05:12:07] post #651 Successfully Imported
[05:12:07] <strong>Record</strong> #139
[05:12:07] post #653 Successfully Imported
[05:12:07] <strong>Record</strong> #140
[05:12:07] post #655 Successfully Imported
[05:12:08] <strong>Record</strong> #141
[05:12:08] post #657 Successfully Imported
[05:12:08] <strong>Record</strong> #142
[05:12:08] post #659 Successfully Imported
[05:12:08] <strong>Record</strong> #143
[05:12:08] post #661 Successfully Imported
[05:12:08] <strong>Record</strong> #144
[05:12:08] post #664 Successfully Imported
[05:12:08] <strong>Record</strong> #145
[05:12:09] post #666 Successfully Imported
[05:12:09] <strong>Record</strong> #146
[05:12:09] post #668 Successfully Imported
[05:12:09] <strong>Record</strong> #147
[05:12:09] post #670 Successfully Imported
[05:12:09] <strong>Record</strong> #148
[05:12:09] post #672 Successfully Imported
[05:12:09] <strong>Record</strong> #149
[05:12:09] post #674 Successfully Imported
[05:12:09] <strong>Record</strong> #150
[05:12:09] post #676 Successfully Imported
[05:12:09] <strong>Record</strong> #151
[05:12:10] post #678 Successfully Imported
[05:12:10] <strong>Record</strong> #152
[05:12:10] post #680 Successfully Imported
[05:12:10] <strong>Record</strong> #153
[05:12:10] post #682 Successfully Imported
[05:12:10] <strong>Record</strong> #154
[05:12:10] post #684 Successfully Imported
[05:12:10] <strong>Record</strong> #155
[05:12:10] post #686 Successfully Imported
[05:12:10] <strong>Record</strong> #156
[05:12:10] post #688 Successfully Imported
[05:12:10] <strong>Record</strong> #157
[05:12:11] post #690 Successfully Imported
[05:12:11] <strong>Record</strong> #158
[05:12:11] post #693 Successfully Imported
[05:12:11] <strong>Record</strong> #159
[05:12:11] post #695 Successfully Imported
[05:12:11] <strong>Record</strong> #160
[05:12:11] post #698 Successfully Imported
[05:12:12] <strong>Record</strong> #161
[05:12:13] post #700 Successfully Imported
[05:12:13] <strong>Record</strong> #162
[05:12:13] post #702 Successfully Imported
[05:12:13] <strong>Record</strong> #163
[05:12:13] post #704 Successfully Imported
[05:12:13] <strong>Record</strong> #164
[05:12:13] post #706 Successfully Imported
[05:12:13] <strong>Record</strong> #165
[05:12:13] post #708 Successfully Imported
[05:12:13] <strong>Record</strong> #166
[05:12:14] post #710 Successfully Imported
[05:12:14] <strong>Record</strong> #167
[05:12:14] post #712 Successfully Imported
[05:12:14] <strong>Record</strong> #168
[05:12:14] post #714 Successfully Imported
[05:12:14] <strong>Record</strong> #169
[05:12:14] post #716 Successfully Imported
[05:12:14] <strong>Record</strong> #170
[05:12:14] post #719 Successfully Imported
[05:12:14] <strong>Record</strong> #171
[05:12:15] post #722 Successfully Imported
[05:12:15] <strong>Record</strong> #172
[05:12:15] post #724 Successfully Imported
[05:12:15] <strong>Record</strong> #173
[05:12:15] post #727 Successfully Imported
[05:12:15] <strong>Record</strong> #174
[05:12:15] post #729 Successfully Imported
[05:12:15] <strong>Record</strong> #175
[05:12:15] post #731 Successfully Imported
[05:12:15] <strong>Record</strong> #176
[05:12:16] post #733 Successfully Imported
[05:12:16] <strong>Record</strong> #177
[05:12:16] post #736 Successfully Imported
[05:12:16] <strong>Record</strong> #178
[05:12:16] post #738 Successfully Imported
[05:12:16] <strong>Record</strong> #179
[05:12:16] post #740 Successfully Imported
[05:12:16] <strong>Record</strong> #180
[05:12:16] post #742 Successfully Imported
[05:12:17] <strong>Record</strong> #181
[05:12:17] post #744 Successfully Imported
[05:12:17] <strong>Record</strong> #182
[05:12:17] post #746 Successfully Imported
[05:12:17] <strong>Record</strong> #183
[05:12:17] post #748 Successfully Imported
[05:12:17] <strong>Record</strong> #184
[05:12:17] post #750 Successfully Imported
[05:12:17] <strong>Record</strong> #185
[05:12:17] post #752 Successfully Imported
[05:12:17] <strong>Record</strong> #186
[05:12:18] post #754 Successfully Imported
[05:12:18] <strong>Record</strong> #187
[05:12:18] post #756 Successfully Imported
[05:12:18] <strong>Record</strong> #188
[05:12:18] post #758 Successfully Imported
[05:12:18] <strong>Record</strong> #189
[05:12:18] post #760 Successfully Imported
[05:12:18] <strong>Record</strong> #190
[05:12:18] post #762 Successfully Imported
[05:12:18] <strong>Record</strong> #191
[05:12:18] post #764 Successfully Imported
[05:12:18] <strong>Record</strong> #192
[05:12:18] post #766 Successfully Imported
[05:12:18] <strong>Record</strong> #193
[05:12:19] post #768 Successfully Imported
[05:12:19] <strong>Record</strong> #194
[05:12:19] post #770 Successfully Imported
[05:12:19] <strong>Record</strong> #195
[05:12:19] post #772 Successfully Imported
[05:12:19] <strong>Record</strong> #196
[05:12:19] post #774 Successfully Imported
[05:12:19] <strong>Record</strong> #197
[05:12:19] post #776 Successfully Imported
[05:12:19] <strong>Record</strong> #198
[05:12:19] post #778 Successfully Imported
[05:12:19] <strong>Record</strong> #199
[05:12:20] post #780 Successfully Imported
[05:12:20] <strong>Record</strong> #200
[05:12:20] post #782 Successfully Imported
[05:12:21] <strong>Record</strong> #201
[05:12:21] post #784 Successfully Imported
[05:12:21] <strong>Record</strong> #202
[05:12:21] post #786 Successfully Imported
[05:12:21] <strong>Record</strong> #203
[05:12:21] post #788 Successfully Imported
[05:12:21] <strong>Record</strong> #204
[05:12:22] post #790 Successfully Imported
[05:12:22] <strong>Record</strong> #205
[05:12:22] post #792 Successfully Imported
[05:12:22] <strong>Record</strong> #206
[05:12:22] post #794 Successfully Imported
[05:12:22] <strong>Record</strong> #207
[05:12:22] post #796 Successfully Imported
[05:12:22] <strong>Record</strong> #208
[05:12:22] post #798 Successfully Imported
[05:12:22] <strong>Record</strong> #209
[05:12:22] post #800 Successfully Imported
[05:12:22] <strong>Record</strong> #210
[05:12:23] post #802 Successfully Imported
[05:12:23] <strong>Record</strong> #211
[05:12:23] post #804 Successfully Imported
[05:12:23] <strong>Record</strong> #212
[05:12:23] post #806 Successfully Imported
[05:12:23] <strong>Record</strong> #213
[05:12:23] post #808 Successfully Imported
[05:12:23] <strong>Record</strong> #214
[05:12:23] post #810 Successfully Imported
[05:12:23] <strong>Record</strong> #215
[05:12:23] post #812 Successfully Imported
[05:12:23] <strong>Record</strong> #216
[05:12:24] post #814 Successfully Imported
[05:12:24] <strong>Record</strong> #217
[05:12:24] post #816 Successfully Imported
[05:12:24] <strong>Record</strong> #218
[05:12:24] post #818 Successfully Imported
[05:12:24] <strong>Record</strong> #219
[05:12:24] post #820 Successfully Imported
[05:12:24] <strong>Record</strong> #220
[05:12:24] post #822 Successfully Imported
[05:12:25] <strong>Record</strong> #221
[05:12:25] post #824 Successfully Imported
[05:12:25] <strong>Record</strong> #222
[05:12:25] post #826 Successfully Imported
[05:12:25] <strong>Record</strong> #223
[05:12:25] post #828 Successfully Imported
[05:12:25] <strong>Record</strong> #224
[05:12:25] post #830 Successfully Imported
[05:12:25] <strong>Record</strong> #225
[05:12:25] post #832 Successfully Imported
[05:12:25] <strong>Record</strong> #226
[05:12:26] post #834 Successfully Imported
[05:12:26] <strong>Record</strong> #227
[05:12:26] post #836 Successfully Imported
[05:12:26] <strong>Record</strong> #228
[05:12:26] post #838 Successfully Imported
[05:12:26] <strong>Record</strong> #229
[05:12:26] post #840 Successfully Imported
[05:12:26] <strong>Record</strong> #230
[05:12:26] post #842 Successfully Imported
[05:12:26] <strong>Record</strong> #231
[05:12:27] post #844 Successfully Imported
[05:12:27] <strong>Record</strong> #232
[05:12:27] post #846 Successfully Imported
[05:12:27] <strong>Record</strong> #233
[05:12:27] post #848 Successfully Imported
[05:12:27] <strong>Record</strong> #234
[05:12:27] post #850 Successfully Imported
[05:12:27] <strong>Record</strong> #235
[05:12:27] post #852 Successfully Imported
[05:12:27] <strong>Record</strong> #236
[05:12:27] post #854 Successfully Imported
[05:12:27] <strong>Record</strong> #237
[05:12:28] post #856 Successfully Imported
[05:12:28] <strong>Record</strong> #238
[05:12:28] post #858 Successfully Imported
[05:12:28] <strong>Record</strong> #239
[05:12:28] post #860 Successfully Imported
[05:12:28] <strong>Record</strong> #240
[05:12:29] post #862 Successfully Imported
[05:12:30] <strong>Record</strong> #241
[05:12:31] post #868 Successfully Imported
[05:12:31] <strong>Record</strong> #242
[05:12:32] <strong>Warning</strong> : Not Found
[05:12:32] post #873 Successfully Imported
[05:12:32] <strong>Record</strong> #243
[05:12:33] <strong>Warning</strong> : Not Found
[05:12:33] post #875 Successfully Imported
[05:12:33] <strong>Record</strong> #244
[05:12:34] <strong>Warning</strong> : Not Found
[05:12:34] post #877 Successfully Imported
[05:12:34] <strong>Record</strong> #245
[05:12:34] <strong>Warning</strong> : Not Found
[05:12:34] post #879 Successfully Imported
[05:12:34] <strong>Record</strong> #246
[05:12:35] post #880 Successfully Imported
[05:12:35] <strong>Record</strong> #247
[05:12:35] post #882 Successfully Imported
[05:12:35] <strong>Record</strong> #248
[05:12:35] post #884 Successfully Imported
[05:12:35] <strong>Record</strong> #249
[05:12:35] post #886 Successfully Imported
[05:12:35] <strong>Record</strong> #250
[05:12:36] post #888 Successfully Imported
[05:12:36] <strong>Record</strong> #251
[05:12:36] post #890 Successfully Imported
[05:12:36] <strong>Record</strong> #252
[05:12:36] post #892 Successfully Imported
[05:12:36] <strong>Record</strong> #253
[05:12:36] post #894 Successfully Imported
[05:12:36] <strong>Record</strong> #254
[05:12:36] post #898 Successfully Imported
[05:12:36] <strong>Record</strong> #255
[05:12:36] post #899 Successfully Imported
[05:12:36] <strong>Record</strong> #256
[05:12:37] post #900 Successfully Imported
[05:12:37] <strong>Record</strong> #257
[05:12:37] post #907 Successfully Imported
[05:12:37] <strong>Record</strong> #258
[05:12:37] post #908 Successfully Imported
[05:12:37] <strong>Record</strong> #259
[05:12:37] post #909 Successfully Imported
[05:12:37] <strong>Record</strong> #260
[05:12:37] post #910 Successfully Imported
[05:12:38] <strong>Record</strong> #261
[05:12:38] post #911 Successfully Imported
[05:12:38] <strong>Record</strong> #262
[05:12:38] post #912 Successfully Imported
[05:12:38] <strong>Record</strong> #263
[05:12:38] post #914 Successfully Imported
[05:12:38] <strong>Record</strong> #264
[05:12:38] post #915 Successfully Imported
[05:12:38] <strong>Record</strong> #265
[05:12:38] post #917 Successfully Imported
[05:12:38] <strong>Record</strong> #266
[05:12:39] post #919 Successfully Imported
[05:12:39] <strong>Record</strong> #267
[05:12:39] post #921 Successfully Imported
[05:12:39] <strong>Record</strong> #268
[05:12:39] post #923 Successfully Imported
[05:12:39] <strong>Record</strong> #269
[05:12:39] post #925 Successfully Imported
[05:12:39] <strong>Record</strong> #270
[05:12:39] post #927 Successfully Imported
[05:12:39] <strong>Record</strong> #271
[05:12:40] post #929 Successfully Imported
[05:12:40] <strong>Record</strong> #272
[05:12:40] post #931 Successfully Imported
[05:12:40] <strong>Record</strong> #273
[05:12:40] post #934 Successfully Imported
[05:12:40] <strong>Record</strong> #274
[05:12:41] post #936 Successfully Imported
[05:12:41] <strong>Record</strong> #275
[05:12:41] post #943 Successfully Imported
[05:12:41] <strong>Record</strong> #276
[05:12:41] post #944 Successfully Imported
[05:12:41] <strong>Record</strong> #277
[05:12:41] post #945 Successfully Imported
[05:12:41] <strong>Record</strong> #278
[05:12:42] post #952 Successfully Imported
[05:12:42] <strong>Record</strong> #279
[05:12:42] post #953 Successfully Imported
[05:12:42] <strong>Record</strong> #280
[05:12:42] post #954 Successfully Imported
[05:12:43] <strong>Record</strong> #281
[05:12:43] post #956 Successfully Imported
[05:12:43] <strong>Record</strong> #282
[05:12:43] post #958 Successfully Imported
[05:12:43] <strong>Record</strong> #283
[05:12:43] post #960 Successfully Imported
[05:12:43] <strong>Record</strong> #284
[05:12:44] post #962 Successfully Imported
[05:12:44] <strong>Record</strong> #285
[05:12:44] post #964 Successfully Imported
[05:12:44] <strong>Record</strong> #286
[05:12:44] post #966 Successfully Imported
[05:12:44] <strong>Record</strong> #287
[05:12:44] post #968 Successfully Imported
[05:12:44] <strong>Record</strong> #288
[05:12:44] post #970 Successfully Imported
[05:12:44] <strong>Record</strong> #289
[05:12:44] post #972 Successfully Imported
[05:12:44] <strong>Record</strong> #290
[05:12:45] post #974 Successfully Imported
[05:12:45] <strong>Record</strong> #291
[05:12:45] post #976 Successfully Imported
[05:12:45] <strong>Record</strong> #292
[05:12:45] post #978 Successfully Imported
[05:12:45] <strong>Record</strong> #293
[05:12:45] post #980 Successfully Imported
[05:12:45] <strong>Record</strong> #294
[05:12:45] post #982 Successfully Imported
[05:12:45] <strong>Record</strong> #295
[05:12:45] post #984 Successfully Imported
[05:12:45] <strong>Record</strong> #296
[05:12:45] post #986 Successfully Imported
[05:12:45] <strong>Record</strong> #297
[05:12:46] post #988 Successfully Imported
[05:12:46] <strong>Record</strong> #298
[05:12:46] post #992 Successfully Imported
[05:12:46] <strong>Record</strong> #299
[05:12:46] post #996 Successfully Imported
[05:12:46] <strong>Record</strong> #300
[05:12:47] post #1000 Successfully Imported
[05:12:47] <strong>Record</strong> #301
[05:12:47] post #1004 Successfully Imported
[05:12:47] <strong>Record</strong> #302
[05:12:47] post #1008 Successfully Imported
[05:12:47] <strong>Record</strong> #303
[05:12:48] post #1012 Successfully Imported
[05:12:48] <strong>Record</strong> #304
[05:12:48] post #1016 Successfully Imported
[05:12:48] <strong>Record</strong> #305
[05:12:48] post #1020 Successfully Imported
[05:12:48] <strong>Record</strong> #306
[05:12:49] post #1024 Successfully Imported
[05:12:49] <strong>Record</strong> #307
[05:12:49] post #1028 Successfully Imported
[05:12:49] <strong>Record</strong> #308
[05:12:49] post #1032 Successfully Imported
[05:12:49] <strong>Record</strong> #309
[05:12:49] post #1036 Successfully Imported
[05:12:49] <strong>Record</strong> #310
[05:12:50] post #1040 Successfully Imported
[05:12:50] <strong>Record</strong> #311
[05:12:50] post #1044 Successfully Imported
[05:12:50] <strong>Record</strong> #312
[05:12:50] post #1048 Successfully Imported
[05:12:50] <strong>Record</strong> #313
[05:12:50] post #1052 Successfully Imported
[05:12:50] <strong>Record</strong> #314
[05:12:51] post #1056 Successfully Imported
[05:12:51] <strong>Record</strong> #315
[05:12:51] post #1060 Successfully Imported
[05:12:51] <strong>Record</strong> #316
[05:12:51] post #1064 Successfully Imported
[05:12:51] <strong>Record</strong> #317
[05:12:52] post #1068 Successfully Imported
[05:12:52] <strong>Record</strong> #318
[05:12:52] post #1071 Successfully Imported
[05:12:52] <strong>Record</strong> #319
[05:12:52] post #1075 Successfully Imported
[05:12:52] <strong>Record</strong> #320
[05:12:52] post #1081 Successfully Imported
[05:12:54] <strong>Record</strong> #321
[05:12:54] post #1083 Successfully Imported
[05:12:54] <strong>Record</strong> #322
[05:12:54] post #1085 Successfully Imported
[05:12:54] <strong>Record</strong> #323
[05:12:55] post #1089 Successfully Imported
[05:12:55] <strong>Record</strong> #324
[05:12:55] post #1093 Successfully Imported
[05:12:55] <strong>Record</strong> #325
[05:12:55] Existing item found #1028
[05:12:55] post #1028 Successfully Imported
[05:12:55] <strong>Record</strong> #326
[05:12:55] post #1098 Successfully Imported
[05:12:55] <strong>Record</strong> #327
[05:12:56] post #1101 Successfully Imported
[05:12:56] <strong>Record</strong> #328
[05:12:56] Existing item found #1024
[05:12:56] post #1024 Successfully Imported
[05:12:56] <strong>Record</strong> #329
[05:12:56] post #1108 Successfully Imported
[05:12:56] <strong>Record</strong> #330
[05:12:57] post #1112 Successfully Imported
[05:12:57] <strong>Record</strong> #331
[05:12:57] post #1117 Successfully Imported
[05:12:57] <strong>Record</strong> #332
[05:12:57] post #1122 Successfully Imported
[05:12:57] <strong>Record</strong> #333
[05:12:58] post #1126 Successfully Imported
[05:12:58] <strong>Record</strong> #334
[05:12:58] post #1130 Successfully Imported
[05:12:58] <strong>Record</strong> #335
[05:12:58] post #1134 Successfully Imported
[05:12:58] <strong>Record</strong> #336
[05:12:59] post #1138 Successfully Imported
[05:12:59] <strong>Record</strong> #337
[05:12:59] post #1142 Successfully Imported
[05:12:59] <strong>Record</strong> #338
[05:12:59] post #1143 Successfully Imported
[05:12:59] <strong>Record</strong> #339
[05:12:59] post #1146 Successfully Imported
[05:12:59] <strong>Record</strong> #340
[05:13:00] post #1149 Successfully Imported
[05:13:00] <strong>Record</strong> #341
[05:13:01] post #1156 Successfully Imported
[05:13:01] <strong>Record</strong> #342
[05:13:01] post #1160 Successfully Imported
[05:13:01] <strong>Record</strong> #343
[05:13:01] post #1164 Successfully Imported
[05:13:01] <strong>Record</strong> #344
[05:13:01] post #1168 Successfully Imported
[05:13:01] <strong>Record</strong> #345
[05:13:02] post #1171 Successfully Imported
[05:13:02] <strong>Record</strong> #346
[05:13:02] post #1175 Successfully Imported
[05:13:02] <strong>Record</strong> #347
[05:13:02] post #1179 Successfully Imported
[05:13:02] <strong>Record</strong> #348
[05:13:03] post #1183 Successfully Imported
[05:13:03] <strong>Record</strong> #349
[05:13:03] post #1187 Successfully Imported
[05:13:03] <strong>Record</strong> #350
[05:13:03] post #1191 Successfully Imported
[05:13:03] <strong>Record</strong> #351
[05:13:04] post #1195 Successfully Imported
[05:13:04] <strong>Record</strong> #352
[05:13:04] post #1199 Successfully Imported
[05:13:04] <strong>Record</strong> #353
[05:13:04] post #1202 Successfully Imported
[05:13:04] <strong>Record</strong> #354
[05:13:04] post #1205 Successfully Imported
[05:13:04] <strong>Record</strong> #355
[05:13:05] post #1207 Successfully Imported
[05:13:05] <strong>Record</strong> #356
[05:13:05] post #1211 Successfully Imported
[05:13:05] <strong>Record</strong> #357
[05:13:05] post #1215 Successfully Imported
[05:13:05] <strong>Record</strong> #358
[05:13:06] post #1220 Successfully Imported
[05:13:06] <strong>Record</strong> #359
[05:13:06] post #1224 Successfully Imported
[05:13:06] <strong>Record</strong> #360
[05:13:06] post #1226 Successfully Imported
[05:13:06] <strong>Record</strong> #361
[05:13:07] post #1228 Successfully Imported
[05:13:07] <strong>Record</strong> #362
[05:13:07] post #1230 Successfully Imported
[05:13:07] <strong>Record</strong> #363
[05:13:07] post #1233 Successfully Imported
[05:13:07] <strong>Record</strong> #364
[05:13:07] post #1235 Successfully Imported
[05:13:07] <strong>Record</strong> #365
[05:13:07] post #1236 Successfully Imported
[05:13:07] <strong>Record</strong> #366
[05:13:08] post #1238 Successfully Imported
[05:13:08] <strong>Record</strong> #367
[05:13:08] post #1240 Successfully Imported
[05:13:08] <strong>Record</strong> #368
[05:13:08] post #1242 Successfully Imported
[05:13:08] <strong>Record</strong> #369
[05:13:08] post #1244 Successfully Imported
[05:13:08] <strong>Record</strong> #370
[05:13:08] post #1246 Successfully Imported
[05:13:08] <strong>Record</strong> #371
[05:13:08] post #1248 Successfully Imported
[05:13:08] <strong>Record</strong> #372
[05:13:09] post #1251 Successfully Imported
[05:13:09] <strong>Record</strong> #373
[05:13:09] post #1253 Successfully Imported
[05:13:09] <strong>Record</strong> #374
[05:13:09] post #1258 Successfully Imported
[05:13:09] <strong>Record</strong> #375
[05:13:10] post #1260 Successfully Imported
[05:13:10] <strong>Record</strong> #376
[05:13:10] post #1263 Successfully Imported
[05:13:10] <strong>Record</strong> #377
[05:13:10] post #1265 Successfully Imported
[05:13:10] <strong>Record</strong> #378
[05:13:11] post #1267 Successfully Imported
[05:13:11] <strong>Record</strong> #379
[05:13:11] post #1269 Successfully Imported
[05:13:11] <strong>Record</strong> #380
[05:13:11] post #1271 Successfully Imported
[05:13:12] <strong>Record</strong> #381
[05:13:12] post #1273 Successfully Imported
[05:13:12] <strong>Record</strong> #382
[05:13:12] post #1275 Successfully Imported
[05:13:12] <strong>Record</strong> #383
[05:13:12] post #1277 Successfully Imported
[05:13:12] <strong>Record</strong> #384
[05:13:13] post #1279 Successfully Imported
[05:13:13] <strong>Record</strong> #385
[05:13:13] post #1281 Successfully Imported
[05:13:13] <strong>Record</strong> #386
[05:13:13] post #1283 Successfully Imported
[05:13:13] <strong>Record</strong> #387
[05:13:13] post #1284 Successfully Imported
[05:13:13] <strong>Record</strong> #388
[05:13:13] post #1285 Successfully Imported
[05:13:13] <strong>Record</strong> #389
[05:13:13] post #1287 Successfully Imported
[05:13:13] <strong>Record</strong> #390
[05:13:14] post #1289 Successfully Imported
[05:13:14] <strong>Record</strong> #391
[05:13:14] post #1291 Successfully Imported
[05:13:14] <strong>Record</strong> #392
[05:13:14] post #1293 Successfully Imported
[05:13:14] <strong>Record</strong> #393
[05:13:15] post #1295 Successfully Imported
[05:13:15] <strong>Record</strong> #394
[05:13:15] post #1297 Successfully Imported
[05:13:15] <strong>Record</strong> #395
[05:13:15] post #1299 Successfully Imported
[05:13:15] <strong>Record</strong> #396
[05:13:15] post #1301 Successfully Imported
[05:13:15] <strong>Record</strong> #397
[05:13:15] post #1303 Successfully Imported
[05:13:15] <strong>Record</strong> #398
[05:13:16] post #1304 Successfully Imported
[05:13:16] <strong>Record</strong> #399
[05:13:16] post #1306 Successfully Imported
[05:13:16] <strong>Record</strong> #400
[05:13:16] post #1308 Successfully Imported
[05:13:17] <strong>Record</strong> #401
[05:13:17] post #1310 Successfully Imported
[05:13:17] <strong>Record</strong> #402
[05:13:17] post #1312 Successfully Imported
[05:13:17] <strong>Record</strong> #403
[05:13:18] post #1314 Successfully Imported
[05:13:18] <strong>Record</strong> #404
[05:13:18] post #1316 Successfully Imported
[05:13:18] <strong>Record</strong> #405
[05:13:18] post #1318 Successfully Imported
[05:13:18] <strong>Record</strong> #406
[05:13:18] post #1320 Successfully Imported
[05:13:18] <strong>Record</strong> #407
[05:13:19] post #1322 Successfully Imported
[05:13:19] <strong>Record</strong> #408
[05:13:19] post #1324 Successfully Imported
[05:13:19] <strong>Record</strong> #409
[05:13:19] post #1326 Successfully Imported
[05:13:19] <strong>Record</strong> #410
[05:13:21] post #1328 Successfully Imported
[05:13:21] <strong>Record</strong> #411
[05:13:21] post #1332 Successfully Imported
[05:13:21] <strong>Record</strong> #412
[05:13:22] post #1340 Successfully Imported
[05:13:22] <strong>Record</strong> #413
[05:13:22] post #1344 Successfully Imported
[05:13:22] <strong>Record</strong> #414
[05:13:22] post #1346 Successfully Imported
[05:13:22] <strong>Record</strong> #415
[05:13:23] post #1348 Successfully Imported
[05:13:23] <strong>Record</strong> #416
[05:13:23] post #1351 Successfully Imported
[05:13:23] <strong>Record</strong> #417
[05:13:23] post #1353 Successfully Imported
[05:13:23] <strong>Record</strong> #418
[05:13:23] post #1355 Successfully Imported
[05:13:23] <strong>Record</strong> #419
[05:13:24] post #1357 Successfully Imported
[05:13:24] <strong>Record</strong> #420
[05:13:24] post #1359 Successfully Imported
[05:13:25] <strong>Record</strong> #421
[05:13:25] post #1361 Successfully Imported
[05:13:25] <strong>Record</strong> #422
[05:13:26] post #1363 Successfully Imported
[05:13:26] <strong>Record</strong> #423
[05:13:26] post #1365 Successfully Imported
[05:13:26] <strong>Record</strong> #424
[05:13:26] post #1367 Successfully Imported
[05:13:26] <strong>Record</strong> #425
[05:13:26] post #1369 Successfully Imported
[05:13:26] <strong>Record</strong> #426
[05:13:27] post #1371 Successfully Imported
[05:13:27] <strong>Record</strong> #427
[05:13:27] post #1373 Successfully Imported
[05:13:27] <strong>Record</strong> #428
[05:13:27] post #1375 Successfully Imported
[05:13:27] <strong>Record</strong> #429
[05:13:27] post #1377 Successfully Imported
[05:13:27] <strong>Record</strong> #430
[05:13:28] post #1379 Successfully Imported
[05:13:28] <strong>Record</strong> #431
[05:13:28] post #1381 Successfully Imported
[05:13:28] <strong>Record</strong> #432
[05:13:29] post #1384 Successfully Imported
[05:13:29] <strong>Record</strong> #433
[05:13:29] post #1389 Successfully Imported
[05:13:29] <strong>Record</strong> #434
[05:13:30] post #1393 Successfully Imported
[05:13:30] <strong>Record</strong> #435
[05:13:30] Existing item found #112
[05:13:30] post #112 Successfully Imported
[05:13:30] <strong>Record</strong> #436
[05:13:30] Existing item found #108
[05:13:30] post #108 Successfully Imported
[05:13:30] <strong>Record</strong> #437
[05:13:31] post #1401 Successfully Imported
[05:13:31] <strong>Record</strong> #438
[05:13:31] post #1403 Successfully Imported
[05:13:31] <strong>Record</strong> #439
[05:13:32] post #1406 Successfully Imported
[05:13:32] <strong>Record</strong> #440
[05:13:32] Existing item found #363
[05:13:32] post #363 Successfully Imported
[05:13:32] <strong>Record</strong> #441
[05:13:32] Existing item found #363
[05:13:32] post #363 Successfully Imported
[05:13:32] <strong>Record</strong> #442
[05:13:32] post #1410 Successfully Imported
[05:13:32] <strong>Record</strong> #443
[05:13:32] Existing item found #363
[05:13:32] post #363 Successfully Imported
